esti_v1/src/io/obj_dir/wave.vcd
$version Generated by VerilatedVcd $end
$date Sat Aug 15 19:37:14 2020
 $end
$timescale   1ps $end

 $scope module TOP $end
  $var wire  1 A SCL $end
  $var wire  1 B SDA $end
  $var wire  1 @ clk $end
  $var wire  8 C received_data(0) [7:0] $end
  $var wire  8 D received_data(1) [7:0] $end
  $var wire  8 E received_data(2) [7:0] $end
  $var wire  8 F received_data(3) [7:0] $end
  $var wire  8 G received_data(4) [7:0] $end
  $var wire  8 H received_data(5) [7:0] $end
  $var wire  8 I received_data(6) [7:0] $end
  $var wire  8 J received_data(7) [7:0] $end
  $scope module i2c_driver_top $end
   $var wire  1 A SCL $end
   $var wire  1 B SDA $end
   $var wire  8 # addrs(0) [7:0] $end
   $var wire  8 $ addrs(1) [7:0] $end
   $var wire  8 % addrs(2) [7:0] $end
   $var wire  1 @ clk $end
   $var wire  2 L clk_cnt [1:0] $end
   $var wire  2 , cnt [1:0] $end
   $var wire  1 N end_flag $end
   $var wire  8 * i_reg_addr [7:0] $end
   $var wire  1 K master_clk $end
   $var wire  1 ) r_en $end
   $var wire  8 C received_data(0) [7:0] $end
   $var wire  8 D received_data(1) [7:0] $end
   $var wire  8 E received_data(2) [7:0] $end
   $var wire  8 F received_data(3) [7:0] $end
   $var wire  8 G received_data(4) [7:0] $end
   $var wire  8 H received_data(5) [7:0] $end
   $var wire  8 I received_data(6) [7:0] $end
   $var wire  8 J received_data(7) [7:0] $end
   $var wire  1 M run_req $end
   $var wire  8 + send_data [7:0] $end
   $var wire  8 & send_datas(0) [7:0] $end
   $var wire  8 ' send_datas(1) [7:0] $end
   $var wire  8 ( send_datas(2) [7:0] $end
   $scope module i2c_driver $end
    $var wire  3 a A [2:0] $end
    $var wire  3 5 ABCD_cnt [2:0] $end
    $var wire  4 Z ACK [3:0] $end
    $var wire  3 Q B [2:0] $end
    $var wire  4 R BUSY [3:0] $end
    $var wire  3 b C [2:0] $end
    $var wire  3 c D [2:0] $end
    $var wire  4 \ ERR [3:0] $end
    $var wire  4 [ NACK [3:0] $end
    $var wire  1 ` R [0:0] $end
    $var wire  4 Y RDATA [3:0] $end
    $var wire  4 X REG_ADDR [3:0] $end
    $var wire  4 T RSTART [3:0] $end
    $var wire  1 A SCL $end
    $var wire  1 B SDA $end
    $var wire  1 = SDA_buf $end
    $var wire  1 > SDA_en $end
    $var wire  4 ^ SEND_ACK [3:0] $end
    $var wire  4 S START [3:0] $end
    $var wire  4 U STOP [3:0] $end
    $var wire  4 W S_ADDR_R [3:0] $end
    $var wire  4 V S_ADDR_W [3:0] $end
    $var wire  1 _ W [0:0] $end
    $var wire  4 ] WDATA [3:0] $end
    $var wire  1 < ack_flag $end
    $var wire  1 K clk $end
    $var wire  3 ? data_cnt [2:0] $end
    $var wire  3 8 data_index [2:0] $end
    $var wire  1 N end_flag $end
    $var wire  8 * i_reg_addr [7:0] $end
    $var wire 27 ; input_buf [26:0] $end
    $var wire  3 Q num_data [2:0] $end
    $var wire  4 7 pstate [3:0] $end
    $var wire  1 ) r_en $end
    $var wire  8 - received_data(0) [7:0] $end
    $var wire  8 . received_data(1) [7:0] $end
    $var wire  8 / received_data(2) [7:0] $end
    $var wire  8 0 received_data(3) [7:0] $end
    $var wire  8 1 received_data(4) [7:0] $end
    $var wire  8 2 received_data(5) [7:0] $end
    $var wire  8 3 received_data(6) [7:0] $end
    $var wire  8 4 received_data(7) [7:0] $end
    $var wire  1 O run_flag $end
    $var wire  1 M run_req $end
    $var wire  8 + send_data [7:0] $end
    $var wire  7 P slave_addr [6:0] $end
    $var wire  8 : slave_addr_r [7:0] $end
    $var wire  8 9 slave_addr_w [7:0] $end
    $var wire  4 6 state [3:0] $end
   $upscope $end
  $upscope $end
 $upscope $end
$enddefinitions $end


#0
b01101011 #
b00011100 $
b01000111 %
b00000000 &
b00001000 '
b00000000 (
0)
b01101011 *
b00000000 +
b00 ,
b00000000 -
b00000000 .
b00000000 /
b00000000 0
b00000000 1
b00000000 2
b00000000 3
b00000000 4
b000 5
b0000 6
b0000 7
b111 8
b00000000 9
b00000001 :
b000000000000000000000000000 ;
0<
0=
0>
b001 ?
1@
1A
0B
b00000000 C
b00000000 D
b00000000 E
b00000000 F
b00000000 G
b00000000 H
b00000000 I
b00000000 J
0K
b00 L
0M
0N
0O
b1101000 P
b001 Q
b0000 R
b0001 S
b0010 T
b0011 U
b0100 V
b0101 W
b0110 X
b0111 Y
b1000 Z
b1001 [
b1010 \
b1011 ]
b1100 ^
0_
1`
b000 a
b010 b
b011 c
#1
#2
0@
#3
#4
1@
b01 L
#5
#6
0@
#7
#8
1@
b10 L
#9
#10
0@
#11
#12
1@
b11 L
#13
#14
0@
#15
#16
b11010000 9
b11010001 :
b110100000000000001101011000 ;
1=
1>
1@
1B
1K
b00 L
1M
1O
#17
#18
0@
#19
#20
1@
b01 L
#21
#22
0@
#23
#24
1@
b10 L
#25
#26
0@
#27
#28
1@
b11 L
#29
#30
0@
#31
#32
1@
0K
b00 L
#33
#34
0@
#35
#36
1@
b01 L
#37
#38
0@
#39
#40
1@
b10 L
#41
#42
0@
#43
#44
1@
b11 L
#45
#46
0@
#47
#48
b0001 6
1@
1K
b00 L
#49
#50
0@
#51
#52
1@
b01 L
#53
#54
0@
#55
#56
1@
b10 L
#57
#58
0@
#59
#60
1@
b11 L
#61
#62
0@
#63
#64
1@
0K
b00 L
#65
#66
0@
#67
#68
1@
b01 L
#69
#70
0@
#71
#72
1@
b10 L
#73
#74
0@
#75
#76
1@
b11 L
#77
#78
0@
#79
#80
b001 5
1@
1K
b00 L
#81
#82
0@
#83
#84
1@
b01 L
#85
#86
0@
#87
#88
1@
b10 L
#89
#90
0@
#91
#92
1@
b11 L
#93
#94
0@
#95
#96
1@
0K
b00 L
#97
#98
0@
#99
#100
1@
b01 L
#101
#102
0@
#103
#104
1@
b10 L
#105
#106
0@
#107
#108
1@
b11 L
#109
#110
0@
#111
#112
b010 5
1@
1K
b00 L
#113
#114
0@
#115
#116
1@
b01 L
#117
#118
0@
#119
#120
1@
b10 L
#121
#122
0@
#123
#124
1@
b11 L
#125
#126
0@
#127
#128
1@
0K
b00 L
#129
#130
0@
#131
#132
1@
b01 L
#133
#134
0@
#135
#136
1@
b10 L
#137
#138
0@
#139
#140
1@
b11 L
#141
#142
0@
#143
#144
b011 5
0=
1@
0B
1K
b00 L
#145
#146
0@
#147
#148
1@
b01 L
#149
#150
0@
#151
#152
1@
b10 L
#153
#154
0@
#155
#156
1@
b11 L
#157
#158
0@
#159
#160
1@
0K
b00 L
#161
#162
0@
#163
#164
1@
b01 L
#165
#166
0@
#167
#168
1@
b10 L
#169
#170
0@
#171
#172
1@
b11 L
#173
#174
0@
#175
#176
b000 5
b0100 6
b0001 7
1@
0A
1K
b00 L
#177
#178
0@
#179
#180
1@
b01 L
#181
#182
0@
#183
#184
1@
b10 L
#185
#186
0@
#187
#188
1@
b11 L
#189
#190
0@
#191
#192
1@
0K
b00 L
#193
#194
0@
#195
#196
1@
b01 L
#197
#198
0@
#199
#200
1@
b10 L
#201
#202
0@
#203
#204
1@
b11 L
#205
#206
0@
#207
#208
b001 5
1=
1@
1B
1K
b00 L
#209
#210
0@
#211
#212
1@
b01 L
#213
#214
0@
#215
#216
1@
b10 L
#217
#218
0@
#219
#220
1@
b11 L
#221
#222
0@
#223
#224
1@
0K
b00 L
#225
#226
0@
#227
#228
1@
b01 L
#229
#230
0@
#231
#232
1@
b10 L
#233
#234
0@
#235
#236
1@
b11 L
#237
#238
0@
#239
#240
b010 5
1@
1A
1K
b00 L
#241
#242
0@
#243
#244
1@
b01 L
#245
#246
0@
#247
#248
1@
b10 L
#249
#250
0@
#251
#252
1@
b11 L
#253
#254
0@
#255
#256
1@
0K
b00 L
#257
#258
0@
#259
#260
1@
b01 L
#261
#262
0@
#263
#264
1@
b10 L
#265
#266
0@
#267
#268
1@
b11 L
#269
#270
0@
#271
#272
b011 5
1@
1K
b00 L
#273
#274
0@
#275
#276
1@
b01 L
#277
#278
0@
#279
#280
1@
b10 L
#281
#282
0@
#283
#284
1@
b11 L
#285
#286
0@
#287
#288
1@
0K
b00 L
#289
#290
0@
#291
#292
1@
b01 L
#293
#294
0@
#295
#296
1@
b10 L
#297
#298
0@
#299
#300
1@
b11 L
#301
#302
0@
#303
#304
b000 5
b110 8
1@
0A
1K
b00 L
#305
#306
0@
#307
#308
1@
b01 L
#309
#310
0@
#311
#312
1@
b10 L
#313
#314
0@
#315
#316
1@
b11 L
#317
#318
0@
#319
#320
1@
0K
b00 L
#321
#322
0@
#323
#324
1@
b01 L
#325
#326
0@
#327
#328
1@
b10 L
#329
#330
0@
#331
#332
1@
b11 L
#333
#334
0@
#335
#336
b001 5
1@
1K
b00 L
#337
#338
0@
#339
#340
1@
b01 L
#341
#342
0@
#343
#344
1@
b10 L
#345
#346
0@
#347
#348
1@
b11 L
#349
#350
0@
#351
#352
1@
0K
b00 L
#353
#354
0@
#355
#356
1@
b01 L
#357
#358
0@
#359
#360
1@
b10 L
#361
#362
0@
#363
#364
1@
b11 L
#365
#366
0@
#367
#368
b010 5
1@
1A
1K
b00 L
#369
#370
0@
#371
#372
1@
b01 L
#373
#374
0@
#375
#376
1@
b10 L
#377
#378
0@
#379
#380
1@
b11 L
#381
#382
0@
#383
#384
1@
0K
b00 L
#385
#386
0@
#387
#388
1@
b01 L
#389
#390
0@
#391
#392
1@
b10 L
#393
#394
0@
#395
#396
1@
b11 L
#397
#398
0@
#399
#400
b011 5
1@
1K
b00 L
#401
#402
0@
#403
#404
1@
b01 L
#405
#406
0@
#407
#408
1@
b10 L
#409
#410
0@
#411
#412
1@
b11 L
#413
#414
0@
#415
#416
1@
0K
b00 L
#417
#418
0@
#419
#420
1@
b01 L
#421
#422
0@
#423
#424
1@
b10 L
#425
#426
0@
#427
#428
1@
b11 L
#429
#430
0@
#431
#432
b000 5
b101 8
1@
0A
1K
b00 L
#433
#434
0@
#435
#436
1@
b01 L
#437
#438
0@
#439
#440
1@
b10 L
#441
#442
0@
#443
#444
1@
b11 L
#445
#446
0@
#447
#448
1@
0K
b00 L
#449
#450
0@
#451
#452
1@
b01 L
#453
#454
0@
#455
#456
1@
b10 L
#457
#458
0@
#459
#460
1@
b11 L
#461
#462
0@
#463
#464
b001 5
0=
1@
0B
1K
b00 L
#465
#466
0@
#467
#468
1@
b01 L
#469
#470
0@
#471
#472
1@
b10 L
#473
#474
0@
#475
#476
1@
b11 L
#477
#478
0@
#479
#480
1@
0K
b00 L
#481
#482
0@
#483
#484
1@
b01 L
#485
#486
0@
#487
#488
1@
b10 L
#489
#490
0@
#491
#492
1@
b11 L
#493
#494
0@
#495
#496
b010 5
1@
1A
1K
b00 L
#497
#498
0@
#499
#500
1@
b01 L
#501
#502
0@
#503
#504
1@
b10 L
#505
#506
0@
#507
#508
1@
b11 L
#509
#510
0@
#511
#512
1@
0K
b00 L
#513
#514
0@
#515
#516
1@
b01 L
#517
#518
0@
#519
#520
1@
b10 L
#521
#522
0@
#523
#524
1@
b11 L
#525
#526
0@
#527
#528
b011 5
1@
1K
b00 L
#529
#530
0@
#531
#532
1@
b01 L
#533
#534
0@
#535
#536
1@
b10 L
#537
#538
0@
#539
#540
1@
b11 L
#541
#542
0@
#543
#544
1@
0K
b00 L
#545
#546
0@
#547
#548
1@
b01 L
#549
#550
0@
#551
#552
1@
b10 L
#553
#554
0@
#555
#556
1@
b11 L
#557
#558
0@
#559
#560
b000 5
b100 8
1@
0A
1K
b00 L
#561
#562
0@
#563
#564
1@
b01 L
#565
#566
0@
#567
#568
1@
b10 L
#569
#570
0@
#571
#572
1@
b11 L
#573
#574
0@
#575
#576
1@
0K
b00 L
#577
#578
0@
#579
#580
1@
b01 L
#581
#582
0@
#583
#584
1@
b10 L
#585
#586
0@
#587
#588
1@
b11 L
#589
#590
0@
#591
#592
b001 5
1=
1@
1B
1K
b00 L
#593
#594
0@
#595
#596
1@
b01 L
#597
#598
0@
#599
#600
1@
b10 L
#601
#602
0@
#603
#604
1@
b11 L
#605
#606
0@
#607
#608
1@
0K
b00 L
#609
#610
0@
#611
#612
1@
b01 L
#613
#614
0@
#615
#616
1@
b10 L
#617
#618
0@
#619
#620
1@
b11 L
#621
#622
0@
#623
#624
b010 5
1@
1A
1K
b00 L
#625
#626
0@
#627
#628
1@
b01 L
#629
#630
0@
#631
#632
1@
b10 L
#633
#634
0@
#635
#636
1@
b11 L
#637
#638
0@
#639
#640
1@
0K
b00 L
#641
#642
0@
#643
#644
1@
b01 L
#645
#646
0@
#647
#648
1@
b10 L
#649
#650
0@
#651
#652
1@
b11 L
#653
#654
0@
#655
#656
b011 5
1@
1K
b00 L
#657
#658
0@
#659
#660
1@
b01 L
#661
#662
0@
#663
#664
1@
b10 L
#665
#666
0@
#667
#668
1@
b11 L
#669
#670
0@
#671
#672
1@
0K
b00 L
#673
#674
0@
#675
#676
1@
b01 L
#677
#678
0@
#679
#680
1@
b10 L
#681
#682
0@
#683
#684
1@
b11 L
#685
#686
0@
#687
#688
b000 5
b011 8
1@
0A
1K
b00 L
#689
#690
0@
#691
#692
1@
b01 L
#693
#694
0@
#695
#696
1@
b10 L
#697
#698
0@
#699
#700
1@
b11 L
#701
#702
0@
#703
#704
1@
0K
b00 L
#705
#706
0@
#707
#708
1@
b01 L
#709
#710
0@
#711
#712
1@
b10 L
#713
#714
0@
#715
#716
1@
b11 L
#717
#718
0@
#719
#720
b001 5
0=
1@
0B
1K
b00 L
#721
#722
0@
#723
#724
1@
b01 L
#725
#726
0@
#727
#728
1@
b10 L
#729
#730
0@
#731
#732
1@
b11 L
#733
#734
0@
#735
#736
1@
0K
b00 L
#737
#738
0@
#739
#740
1@
b01 L
#741
#742
0@
#743
#744
1@
b10 L
#745
#746
0@
#747
#748
1@
b11 L
#749
#750
0@
#751
#752
b010 5
1@
1A
1K
b00 L
#753
#754
0@
#755
#756
1@
b01 L
#757
#758
0@
#759
#760
1@
b10 L
#761
#762
0@
#763
#764
1@
b11 L
#765
#766
0@
#767
#768
1@
0K
b00 L
#769
#770
0@
#771
#772
1@
b01 L
#773
#774
0@
#775
#776
1@
b10 L
#777
#778
0@
#779
#780
1@
b11 L
#781
#782
0@
#783
#784
b011 5
1@
1K
b00 L
#785
#786
0@
#787
#788
1@
b01 L
#789
#790
0@
#791
#792
1@
b10 L
#793
#794
0@
#795
#796
1@
b11 L
#797
#798
0@
#799
#800
1@
0K
b00 L
#801
#802
0@
#803
#804
1@
b01 L
#805
#806
0@
#807
#808
1@
b10 L
#809
#810
0@
#811
#812
1@
b11 L
#813
#814
0@
#815
#816
b000 5
b010 8
1@
0A
1K
b00 L
#817
#818
0@
#819
#820
1@
b01 L
#821
#822
0@
#823
#824
1@
b10 L
#825
#826
0@
#827
#828
1@
b11 L
#829
#830
0@
#831
#832
1@
0K
b00 L
#833
#834
0@
#835
#836
1@
b01 L
#837
#838
0@
#839
#840
1@
b10 L
#841
#842
0@
#843
#844
1@
b11 L
#845
#846
0@
#847
#848
b001 5
1@
1K
b00 L
#849
#850
0@
#851
#852
1@
b01 L
#853
#854
0@
#855
#856
1@
b10 L
#857
#858
0@
#859
#860
1@
b11 L
#861
#862
0@
#863
#864
1@
0K
b00 L
#865
#866
0@
#867
#868
1@
b01 L
#869
#870
0@
#871
#872
1@
b10 L
#873
#874
0@
#875
#876
1@
b11 L
#877
#878
0@
#879
#880
b010 5
1@
1A
1K
b00 L
#881
#882
0@
#883
#884
1@
b01 L
#885
#886
0@
#887
#888
1@
b10 L
#889
#890
0@
#891
#892
1@
b11 L
#893
#894
0@
#895
#896
1@
0K
b00 L
#897
#898
0@
#899
#900
1@
b01 L
#901
#902
0@
#903
#904
1@
b10 L
#905
#906
0@
#907
#908
1@
b11 L
#909
#910
0@
#911
#912
b011 5
1@
1K
b00 L
#913
#914
0@
#915
#916
1@
b01 L
#917
#918
0@
#919
#920
1@
b10 L
#921
#922
0@
#923
#924
1@
b11 L
#925
#926
0@
#927
#928
1@
0K
b00 L
#929
#930
0@
#931
#932
1@
b01 L
#933
#934
0@
#935
#936
1@
b10 L
#937
#938
0@
#939
#940
1@
b11 L
#941
#942
0@
#943
#944
b000 5
b001 8
1@
0A
1K
b00 L
#945
#946
0@
#947
#948
1@
b01 L
#949
#950
0@
#951
#952
1@
b10 L
#953
#954
0@
#955
#956
1@
b11 L
#957
#958
0@
#959
#960
1@
0K
b00 L
#961
#962
0@
#963
#964
1@
b01 L
#965
#966
0@
#967
#968
1@
b10 L
#969
#970
0@
#971
#972
1@
b11 L
#973
#974
0@
#975
#976
b001 5
1@
1K
b00 L
#977
#978
0@
#979
#980
1@
b01 L
#981
#982
0@
#983
#984
1@
b10 L
#985
#986
0@
#987
#988
1@
b11 L
#989
#990
0@
#991
#992
1@
0K
b00 L
#993
#994
0@
#995
#996
1@
b01 L
#997
#998
0@
#999
#1000
1@
b10 L
#1001
#1002
0@
#1003
#1004
1@
b11 L
#1005
#1006
0@
#1007
#1008
b010 5
1@
1A
1K
b00 L
#1009
#1010
0@
#1011
#1012
1@
b01 L
#1013
#1014
0@
#1015
#1016
1@
b10 L
#1017
#1018
0@
#1019
#1020
1@
b11 L
#1021
#1022
0@
#1023
#1024
1@
0K
b00 L
#1025
#1026
0@
#1027
#1028
1@
b01 L
#1029
#1030
0@
#1031
#1032
1@
b10 L
#1033
#1034
0@
#1035
#1036
1@
b11 L
#1037
#1038
0@
#1039
#1040
b011 5
1@
1K
b00 L
#1041
#1042
0@
#1043
#1044
1@
b01 L
#1045
#1046
0@
#1047
#1048
1@
b10 L
#1049
#1050
0@
#1051
#1052
1@
b11 L
#1053
#1054
0@
#1055
#1056
1@
0K
b00 L
#1057
#1058
0@
#1059
#1060
1@
b01 L
#1061
#1062
0@
#1063
#1064
1@
b10 L
#1065
#1066
0@
#1067
#1068
1@
b11 L
#1069
#1070
0@
#1071
#1072
b000 5
b000 8
1@
0A
1K
b00 L
#1073
#1074
0@
#1075
#1076
1@
b01 L
#1077
#1078
0@
#1079
#1080
1@
b10 L
#1081
#1082
0@
#1083
#1084
1@
b11 L
#1085
#1086
0@
#1087
#1088
1@
0K
b00 L
#1089
#1090
0@
#1091
#1092
1@
b01 L
#1093
#1094
0@
#1095
#1096
1@
b10 L
#1097
#1098
0@
#1099
#1100
1@
b11 L
#1101
#1102
0@
#1103
#1104
b001 5
1@
1K
b00 L
#1105
#1106
0@
#1107
#1108
1@
b01 L
#1109
#1110
0@
#1111
#1112
1@
b10 L
#1113
#1114
0@
#1115
#1116
1@
b11 L
#1117
#1118
0@
#1119
#1120
1@
0K
b00 L
#1121
#1122
0@
#1123
#1124
1@
b01 L
#1125
#1126
0@
#1127
#1128
1@
b10 L
#1129
#1130
0@
#1131
#1132
1@
b11 L
#1133
#1134
0@
#1135
#1136
b010 5
1@
1A
1K
b00 L
#1137
#1138
0@
#1139
#1140
1@
b01 L
#1141
#1142
0@
#1143
#1144
1@
b10 L
#1145
#1146
0@
#1147
#1148
1@
b11 L
#1149
#1150
0@
#1151
#1152
1@
0K
b00 L
#1153
#1154
0@
#1155
#1156
1@
b01 L
#1157
#1158
0@
#1159
#1160
1@
b10 L
#1161
#1162
0@
#1163
#1164
1@
b11 L
#1165
#1166
0@
#1167
#1168
b011 5
1@
1K
b00 L
#1169
#1170
0@
#1171
#1172
1@
b01 L
#1173
#1174
0@
#1175
#1176
1@
b10 L
#1177
#1178
0@
#1179
#1180
1@
b11 L
#1181
#1182
0@
#1183
#1184
1@
0K
b00 L
#1185
#1186
0@
#1187
#1188
1@
b01 L
#1189
#1190
0@
#1191
#1192
1@
b10 L
#1193
#1194
0@
#1195
#1196
1@
b11 L
#1197
#1198
0@
#1199
#1200
b000 5
b1000 6
b0100 7
b111 8
1@
0A
1K
b00 L
#1201
#1202
0@
#1203
#1204
1@
b01 L
#1205
#1206
0@
#1207
#1208
1@
b10 L
#1209
#1210
0@
#1211
#1212
1@
b11 L
#1213
#1214
0@
#1215
#1216
1@
0K
b00 L
#1217
#1218
0@
#1219
#1220
1@
b01 L
#1221
#1222
0@
#1223
#1224
1@
b10 L
#1225
#1226
0@
#1227
#1228
1@
b11 L
#1229
#1230
0@
#1231
#1232
b001 5
1<
1@
1K
b00 L
#1233
#1234
0@
#1235
#1236
1@
b01 L
#1237
#1238
0@
#1239
#1240
1@
b10 L
#1241
#1242
0@
#1243
#1244
1@
b11 L
#1245
#1246
0@
#1247
#1248
1@
0K
b00 L
#1249
#1250
0@
#1251
#1252
1@
b01 L
#1253
#1254
0@
#1255
#1256
1@
b10 L
#1257
#1258
0@
#1259
#1260
1@
b11 L
#1261
#1262
0@
#1263
#1264
b010 5
1@
1A
1K
b00 L
#1265
#1266
0@
#1267
#1268
1@
b01 L
#1269
#1270
0@
#1271
#1272
1@
b10 L
#1273
#1274
0@
#1275
#1276
1@
b11 L
#1277
#1278
0@
#1279
#1280
1@
0K
b00 L
#1281
#1282
0@
#1283
#1284
1@
b01 L
#1285
#1286
0@
#1287
#1288
1@
b10 L
#1289
#1290
0@
#1291
#1292
1@
b11 L
#1293
#1294
0@
#1295
#1296
b011 5
1@
1K
b00 L
#1297
#1298
0@
#1299
#1300
1@
b01 L
#1301
#1302
0@
#1303
#1304
1@
b10 L
#1305
#1306
0@
#1307
#1308
1@
b11 L
#1309
#1310
0@
#1311
#1312
1@
0K
b00 L
#1313
#1314
0@
#1315
#1316
1@
b01 L
#1317
#1318
0@
#1319
#1320
1@
b10 L
#1321
#1322
0@
#1323
#1324
1@
b11 L
#1325
#1326
0@
#1327
#1328
b000 5
b0110 6
b1000 7
1@
0A
1K
b00 L
#1329
#1330
0@
#1331
#1332
1@
b01 L
#1333
#1334
0@
#1335
#1336
1@
b10 L
#1337
#1338
0@
#1339
#1340
1@
b11 L
#1341
#1342
0@
#1343
#1344
1@
0K
b00 L
#1345
#1346
0@
#1347
#1348
1@
b01 L
#1349
#1350
0@
#1351
#1352
1@
b10 L
#1353
#1354
0@
#1355
#1356
1@
b11 L
#1357
#1358
0@
#1359
#1360
b001 5
1@
1K
b00 L
#1361
#1362
0@
#1363
#1364
1@
b01 L
#1365
#1366
0@
#1367
#1368
1@
b10 L
#1369
#1370
0@
#1371
#1372
1@
b11 L
#1373
#1374
0@
#1375
#1376
1@
0K
b00 L
#1377
#1378
0@
#1379
#1380
1@
b01 L
#1381
#1382
0@
#1383
#1384
1@
b10 L
#1385
#1386
0@
#1387
#1388
1@
b11 L
#1389
#1390
0@
#1391
#1392
b010 5
1@
1A
1K
b00 L
#1393
#1394
0@
#1395
#1396
1@
b01 L
#1397
#1398
0@
#1399
#1400
1@
b10 L
#1401
#1402
0@
#1403
#1404
1@
b11 L
#1405
#1406
0@
#1407
#1408
1@
0K
b00 L
#1409
#1410
0@
#1411
#1412
1@
b01 L
#1413
#1414
0@
#1415
#1416
1@
b10 L
#1417
#1418
0@
#1419
#1420
1@
b11 L
#1421
#1422
0@
#1423
#1424
b011 5
1@
1K
b00 L
#1425
#1426
0@
#1427
#1428
1@
b01 L
#1429
#1430
0@
#1431
#1432
1@
b10 L
#1433
#1434
0@
#1435
#1436
1@
b11 L
#1437
#1438
0@
#1439
#1440
1@
0K
b00 L
#1441
#1442
0@
#1443
#1444
1@
b01 L
#1445
#1446
0@
#1447
#1448
1@
b10 L
#1449
#1450
0@
#1451
#1452
1@
b11 L
#1453
#1454
0@
#1455
#1456
b000 5
b110 8
1@
0A
1K
b00 L
#1457
#1458
0@
#1459
#1460
1@
b01 L
#1461
#1462
0@
#1463
#1464
1@
b10 L
#1465
#1466
0@
#1467
#1468
1@
b11 L
#1469
#1470
0@
#1471
#1472
1@
0K
b00 L
#1473
#1474
0@
#1475
#1476
1@
b01 L
#1477
#1478
0@
#1479
#1480
1@
b10 L
#1481
#1482
0@
#1483
#1484
1@
b11 L
#1485
#1486
0@
#1487
#1488
b001 5
1=
1@
1B
1K
b00 L
#1489
#1490
0@
#1491
#1492
1@
b01 L
#1493
#1494
0@
#1495
#1496
1@
b10 L
#1497
#1498
0@
#1499
#1500
1@
b11 L
#1501
#1502
0@
#1503
#1504
1@
0K
b00 L
#1505
#1506
0@
#1507
#1508
1@
b01 L
#1509
#1510
0@
#1511
#1512
1@
b10 L
#1513
#1514
0@
#1515
#1516
1@
b11 L
#1517
#1518
0@
#1519
#1520
b010 5
1@
1A
1K
b00 L
#1521
#1522
0@
#1523
#1524
1@
b01 L
#1525
#1526
0@
#1527
#1528
1@
b10 L
#1529
#1530
0@
#1531
#1532
1@
b11 L
#1533
#1534
0@
#1535
#1536
1@
0K
b00 L
#1537
#1538
0@
#1539
#1540
1@
b01 L
#1541
#1542
0@
#1543
#1544
1@
b10 L
#1545
#1546
0@
#1547
#1548
1@
b11 L
#1549
#1550
0@
#1551
#1552
b011 5
1@
1K
b00 L
#1553
#1554
0@
#1555
#1556
1@
b01 L
#1557
#1558
0@
#1559
#1560
1@
b10 L
#1561
#1562
0@
#1563
#1564
1@
b11 L
#1565
#1566
0@
#1567
#1568
1@
0K
b00 L
#1569
#1570
0@
#1571
#1572
1@
b01 L
#1573
#1574
0@
#1575
#1576
1@
b10 L
#1577
#1578
0@
#1579
#1580
1@
b11 L
#1581
#1582
0@
#1583
#1584
b000 5
b101 8
1@
0A
1K
b00 L
#1585
#1586
0@
#1587
#1588
1@
b01 L
#1589
#1590
0@
#1591
#1592
1@
b10 L
#1593
#1594
0@
#1595
#1596
1@
b11 L
#1597
#1598
0@
#1599
#1600
1@
0K
b00 L
#1601
#1602
0@
#1603
#1604
1@
b01 L
#1605
#1606
0@
#1607
#1608
1@
b10 L
#1609
#1610
0@
#1611
#1612
1@
b11 L
#1613
#1614
0@
#1615
#1616
b001 5
1@
1K
b00 L
#1617
#1618
0@
#1619
#1620
1@
b01 L
#1621
#1622
0@
#1623
#1624
1@
b10 L
#1625
#1626
0@
#1627
#1628
1@
b11 L
#1629
#1630
0@
#1631
#1632
1@
0K
b00 L
#1633
#1634
0@
#1635
#1636
1@
b01 L
#1637
#1638
0@
#1639
#1640
1@
b10 L
#1641
#1642
0@
#1643
#1644
1@
b11 L
#1645
#1646
0@
#1647
#1648
b010 5
1@
1A
1K
b00 L
#1649
#1650
0@
#1651
#1652
1@
b01 L
#1653
#1654
0@
#1655
#1656
1@
b10 L
#1657
#1658
0@
#1659
#1660
1@
b11 L
#1661
#1662
0@
#1663
#1664
1@
0K
b00 L
#1665
#1666
0@
#1667
#1668
1@
b01 L
#1669
#1670
0@
#1671
#1672
1@
b10 L
#1673
#1674
0@
#1675
#1676
1@
b11 L
#1677
#1678
0@
#1679
#1680
b011 5
1@
1K
b00 L
#1681
#1682
0@
#1683
#1684
1@
b01 L
#1685
#1686
0@
#1687
#1688
1@
b10 L
#1689
#1690
0@
#1691
#1692
1@
b11 L
#1693
#1694
0@
#1695
#1696
1@
0K
b00 L
#1697
#1698
0@
#1699
#1700
1@
b01 L
#1701
#1702
0@
#1703
#1704
1@
b10 L
#1705
#1706
0@
#1707
#1708
1@
b11 L
#1709
#1710
0@
#1711
#1712
b000 5
b100 8
1@
0A
1K
b00 L
#1713
#1714
0@
#1715
#1716
1@
b01 L
#1717
#1718
0@
#1719
#1720
1@
b10 L
#1721
#1722
0@
#1723
#1724
1@
b11 L
#1725
#1726
0@
#1727
#1728
1@
0K
b00 L
#1729
#1730
0@
#1731
#1732
1@
b01 L
#1733
#1734
0@
#1735
#1736
1@
b10 L
#1737
#1738
0@
#1739
#1740
1@
b11 L
#1741
#1742
0@
#1743
#1744
b001 5
0=
1@
0B
1K
b00 L
#1745
#1746
0@
#1747
#1748
1@
b01 L
#1749
#1750
0@
#1751
#1752
1@
b10 L
#1753
#1754
0@
#1755
#1756
1@
b11 L
#1757
#1758
0@
#1759
#1760
1@
0K
b00 L
#1761
#1762
0@
#1763
#1764
1@
b01 L
#1765
#1766
0@
#1767
#1768
1@
b10 L
#1769
#1770
0@
#1771
#1772
1@
b11 L
#1773
#1774
0@
#1775
#1776
b010 5
1@
1A
1K
b00 L
#1777
#1778
0@
#1779
#1780
1@
b01 L
#1781
#1782
0@
#1783
#1784
1@
b10 L
#1785
#1786
0@
#1787
#1788
1@
b11 L
#1789
#1790
0@
#1791
#1792
1@
0K
b00 L
#1793
#1794
0@
#1795
#1796
1@
b01 L
#1797
#1798
0@
#1799
#1800
1@
b10 L
#1801
#1802
0@
#1803
#1804
1@
b11 L
#1805
#1806
0@
#1807
#1808
b011 5
1@
1K
b00 L
#1809
#1810
0@
#1811
#1812
1@
b01 L
#1813
#1814
0@
#1815
#1816
1@
b10 L
#1817
#1818
0@
#1819
#1820
1@
b11 L
#1821
#1822
0@
#1823
#1824
1@
0K
b00 L
#1825
#1826
0@
#1827
#1828
1@
b01 L
#1829
#1830
0@
#1831
#1832
1@
b10 L
#1833
#1834
0@
#1835
#1836
1@
b11 L
#1837
#1838
0@
#1839
#1840
b000 5
b011 8
1@
0A
1K
b00 L
#1841
#1842
0@
#1843
#1844
1@
b01 L
#1845
#1846
0@
#1847
#1848
1@
b10 L
#1849
#1850
0@
#1851
#1852
1@
b11 L
#1853
#1854
0@
#1855
#1856
1@
0K
b00 L
#1857
#1858
0@
#1859
#1860
1@
b01 L
#1861
#1862
0@
#1863
#1864
1@
b10 L
#1865
#1866
0@
#1867
#1868
1@
b11 L
#1869
#1870
0@
#1871
#1872
b001 5
1=
1@
1B
1K
b00 L
#1873
#1874
0@
#1875
#1876
1@
b01 L
#1877
#1878
0@
#1879
#1880
1@
b10 L
#1881
#1882
0@
#1883
#1884
1@
b11 L
#1885
#1886
0@
#1887
#1888
1@
0K
b00 L
#1889
#1890
0@
#1891
#1892
1@
b01 L
#1893
